{
    "log": {
      "error": "",
      "loglevel": "info",
      "access": ""
    },
    "inbounds": [
      {
        "port": 12345,
        "protocol": "dokodemo-door",
        "settings": {
          "network": "tcp,udp",
          "followRedirect": true
        },
        "sniffing": {
          "enabled": true,
          "destOverride": ["http", "tls"]
        }
      }
    ],
    "outbounds": [
      {
        "mux": {
          "enabled": false,
          "concurrency": 8
        },
        "protocol": "vmess",
        "streamSettings": {
          "wsSettings": {
            "path": "__SERVER_PATH__",
            "headers": {
              "host": "__SERVER_HOST__"
            }
          },
          "tlsSettings": {
            "serverName": "__SERVER_HOST__",
            "allowInsecure": true
          },
          "security": "tls",
          "network": "ws",
          "sockopt": {
            "mark": 255
          }
        },
        "tag": "proxy",
        "settings": {
          "vnext": [
            {
              "address": "__SERVER_HOST__",
              "users": [
                {
                  "id": "__USER_ID__",
                  "alterId": __USER_ALTER_ID__,
                  "level": __USER_LEVEL__,
                  "security": "__USER_SECURITY__"
                }
              ],
              "port": __SERVER_PORT__
            }
          ]
        }
      },
      {
        "tag": "direct",
        "protocol": "freedom",
        "settings": {
          "domainStrategy": "AsIs",
          "redirect": "",
          "userLevel": 0
        }
      },
      {
        "tag": "block",
        "protocol": "blackhole",
        "settings": {
          "response": {
            "type": "none"
          }
        }
      }
    ],
    "dns": {},
    "routing": {
      "settings": {
        "domainStrategy": "AsIs",
        "rules": []
      }
    },
    "transport": {}
  }